{
    "name": {
        "en-US": "closed",
        "de-DE": "geschlossen"
    },
    "description": {
        "en-US": "Actor closed an object (forum post)",
        "de-DE": "Akteur hat ein Objekt (Forumeintrag) geschlossen"
    },
    "exactMatch": [
        "https://activitystrea.ms/registry/verbs/",
        "https://registry.tincanapi.com/#uri/verb/97" 
    ],
    "relatedMatch": [
    ]
}