{
    "name": {
        "en-US": "resumed",
        "de-DE": "nahm wieder auf"
    },
    "description": {
        "en-US": "Actor resumed a previously paused activity",
        "de-DE": "Akteur nahm eine zuvor pausierte Aktivität wieder auf"
    },
    "exactMatch": [
    ],
    "relatedMatch": [
    ]
}