{
    "name": {
        "en-US": "gamemode",
        "de-DE": "Spielmodus"
    },
    "description": {
        "en-US": "The gamemode in which the game is played. Can be a string or integer.",
        "de-DE": "Der Spielmodus in welchem das Spiel gespielt wird. Kann ein String oder ein Integer sein."
    }
}