{
    "name": {
        "en-US": "Triangle",
        "de-DE": "Dreieck"
    },
    "description": {
        "en-US": "Sequence of vertices with it's index, color and position.",
        "de-DE": "Sequenz von Knotenpunkten mit dessen Index, Farbe und Position."
    }
}