{
    "name": {
        "en-US": "restarted",
        "de-DE": "startete neu"
    },
    "description": {
        "en-US": "An actor restarted playing a media element after finishing it.",
        "de-DE": "Ein Akteur startete die Wiedergabe eines Medienelements erneut, nachdem diese zuvor beendet wurde."
    },
    "exactMatch": [ ],
    "relatedMatch": [ ]
}