{
    "name": {
        "en-US": "changes",
        "de-DE": "Änderungen"
    },
    "description": {
        "en-US": "A collection of commits that are pushed to the repository.",
        "de-DE": "Eine Sammlung von Änderungen am Repository."
    }
}