{
    "name": {
        "en-US": "number of gestures",
        "de-DE": "Gestenanzahl"
    },
    "description": {
        "en-US": "The number of actors gestures. Has to be an integer.",
        "de-DE": "Die Anzahl an Gesten, die die Akteurin tätigt. Muss ein Integer sein."
    }
}