{
    "name": {
        "en-US": "Log Out"
    },
    "description": {
        "en-US": "An actor logged out of the portal."
    },
    "exactMatch": [
        "https://registry.tincanapi.com/#uri/verb/398"
    ]
}