{
    "name": {
        "de-DE": "zeigt Interesse, Stolz oder Freude"
    },
    "description": {
        "de-DE": "Subscore (5/5 bzw. ++) wenn ein Akteuer Intresse, Stolz oder Freude zeigt"
    },
    "result":{
        "score":{
          "min": 1,
          "max": 5
        }
    }
}