{
    "name": {
        "en-US": "released",
        "de-DE": "löste"
    },
    "description": {
        "en-US": "The actor has released a controller button.",
        "de-DE": "Eine Akteurin löste einen Controller Taste."
    }
}