{
    "name": {
        "en-US": "gazed",
        "de-DE": "richtete aus"
    },
    "description": {
        "en-US": "An actor has gazed a part of her body in a direction.",
        "de-DE": "Eine Akteurin richtete ihr Körperteil in eine Richtung aus."
    }
}