{
    "name": {
        "de-DE": "fragt"
    },
    "description": {
        "de-DE": "Ein Akteur fragt etwas"
    },
    "choices": [
        {
            "exactMatch": ["https://xapi.elearn.rwth-aachen.de/definitions/observation/activities/nach Aufgaben Details"],
            "rules" : [
                {
                    "exactMatch": ["https://xapi.elearn.rwth-aachen.de/definitions/observation/activities/subscore/zeigt Interesse, Stolz oder Freude"],
                    "result":{
                        "score":{
                          "raw": 5,
                          "min": 1,
                          "max": 5
                        }
                    }
                },
                {
                    "exactMatch": ["https://xapi.elearn.rwth-aachen.de/definitions/observation/activities/subscore/wird immer wieder von sich aus aktiv"],
                    "result":{
                        "score":{
                          "raw": 5,
                          "min": 1,
                          "max": 5
                        }
                    }
                },
                {
                    "exactMatch": ["https://xapi.elearn.rwth-aachen.de/definitions/observation/activities/subscore/setzt geeignete Mittel einführt geeignete Handlungen aus, um das Ziel zu erreichen"],
                    "result":{
                        "score":{
                          "raw": 5,
                          "min": 1,
                          "max": 5
                        }
                    }
                },
                {
                    "exactMatch": ["https://xapi.elearn.rwth-aachen.de/definitions/observation/activities/subscore/beteiligt sich sprachlich an Lösung der Aufgabe/stellt Fragen"],
                    "result":{
                        "score":{
                          "raw": 5,
                          "min": 1,
                          "max": 5
                        }
                    }
                }
            ]
        },
        {
            "exactMatch": ["https://xapi.elearn.rwth-aachen.de/definitions/observation/activities/andere"],
            "rules" : [
                {
                    "exactMatch": ["https://xapi.elearn.rwth-aachen.de/definitions/observation/activities/subscore/zeigt Interesse, Stolz oder Freude"],
                    "result":{
                        "score":{
                          "raw": 5,
                          "min": 1,
                          "max": 5
                        }
                    }
                },
                {
                    "exactMatch": ["https://xapi.elearn.rwth-aachen.de/definitions/observation/activities/subscore/wird immer wieder von sich aus aktiv"],
                    "result":{
                        "score":{
                          "raw": 5,
                          "min": 1,
                          "max": 5
                        }
                    }
                },
                {
                    "exactMatch": ["https://xapi.elearn.rwth-aachen.de/definitions/observation/activities/subscore/stellt eigene Bedürfnisse hinten an, wenn es die Situation erfordert"],
                    "result":{
                        "score":{
                          "raw": 5,
                          "min": 1,
                          "max": 5
                        }
                    }
                },
                {
                    "exactMatch": ["https://xapi.elearn.rwth-aachen.de/definitions/observation/activities/subscore/vertritt eigene Meinungen und zeigt sich dabei kompromissbereit"],
                    "result":{
                        "score":{
                          "raw": 5,
                          "min": 1,
                          "max": 5
                        }
                    }
                },
                {
                    "exactMatch": ["https://xapi.elearn.rwth-aachen.de/definitions/observation/activities/subscore/zeigt aktiv Interesse an anderen Menschen und ihren Ansichten/Ideen"],
                    "result":{
                        "score":{
                          "raw": 5,
                          "min": 1,
                          "max": 5
                        }
                    }
                }
            ]
        }
    ]
}