{
    "name": {
        "en-US": "answered",
        "de-DE": "beantwortete"
    },
    "description": {
        "en-US": "An actor answered some question.",
        "de-DE": "Ein Akteur beantwortete eine Frage."
    },
    "exactMatch": [
        "https://registry.tincanapi.com/#uri/verb/21",
        "https://adlnet.gov/expapi/verbs/answered"
    ]
}
