{
    "name": {
        "en-US": "pressed",
        "de-DE": "drückte"
    },
    "description": {
        "en-US": "An actor has pressed a button.",
        "de-DE": "Der Agierende drückte eine Taste."
    }
}