{
    "name": {
        "en-US": "progressed",
        "de-DE": "erzielte Fortschritt"
    },
    "description": {
        "en-US": "An actor progressed in some game related way(achieved something or completed something).",
        "de-DE": "Ein Akteur erzielte in einer Form einen Fortschritt im Spiel(erreichte oder vollendete etwas)."
    },
    "exactMatch": [
        "https://registry.tincanapi.com/#uri/verb/31",
        "https://adlnet.gov/expapi/verbs/progressed"
    ]
}