{
    "name": {
        "en-US": "released",
        "de-DE": "löste"
    },
    "description": {
        "en-US": "An actor has released a button.",
        "de-DE": "Der Agierende löste eine Taste."
    }
}