{
    "name": {
        "en-US": "watched",
        "de-DE": "schaute"
    },
    "description": {
        "en-US": "An actor watched a video. Only use if you can assure the actors really watched the video, use eye-tracking for example.",
        "de-DE": "Ein Akteur schaute ein Video. Sollte nur genutzt werden wenn sichergestellt werden kann, dass das Video wirklich geschaut wurde. Eyetracking könnte dafür zum Beispiel benutzt werden."
    },
    "exactMatch": [
        "https://registry.tincanapi.com/#uri/verb/50",
        "https://activitystrea.ms/schema/1.0/watch"
    ]
}