{
    "name": {
        "en-US": "Chat",
        "de-DE": "Chat"
    },
    "description": {
        "en-US": "A chat to communicate with others.",
        "de-DE": "Ein Chat um mit anderen zu kommunizieren."
    },
    "exactMatch": [ ],
    "relatedMatch": [ ]
}