{
    "name": {
        "en-US": "URL",
        "de-DE": "Link"
    },
    "description": {
        "en-US": "An URL object, linking to another website or web resource.",
        "de-DE": "Ein Link, der auf eine andere Webseite oder Webressource weiterleitet."
    },
    "exactMatch": [ ],
    "relatedMatch": [ ]
}