{
    "name": {
        "en-US": "draggable",
        "de-DE": "ziehbares Objekt"
    },
    "description": {
        "en-US": "Something that can be dragged across the screen in the game.",
        "de-DE": "Etwas was im Spiel über den Bildschirm gezogen werden kann."
    }
}