{
    "name": {
        "de-DE": "Methodisches Potenzial"
    },
    "description": {
        "de-DE": "Mainscore (5/5) wenn ein Akteuer Methodisches Potenzial zeigt"
    },
    "result":{
        "score":{
          "min": 1,
          "max": 5
        }
    }
}