{
    "name": {
        "de-DE": "Motivation und Leistungsbereitschaft"
    },
    "description": {
        "de-DE": "Mainscore (5/5) wenn ein Akteuer Motivation und Leistungsbereitschaft zeigt"
    },
    "result":{
        "score":{
          "min": 1,
          "max": 5
        }
    }
}