{
    "name": {
        "en-US": "tid copied"
    },
    "description": {
        "en-US": "An actor copied the TID from the screen. Then the actor can paste it in google to research on the transponder."
    }
}