{
    "name": {
        "en-US": "JupyterLab",
        "de-DE": "JupyterLab"
    },
    "description": {
        "en-US": "A web-based user interface for Project Jupyter. See https://jupyterlab.readthedocs.io",
        "de-DE": "Ein webbasiertes Benutzerinterface für Project Jupyter. Mehr informationen hier: https://jupyterlab.readthedocs.io"
    }
}

