{
    "name": {
        "en-US": "touched",
        "de-DE": "berührte"
    },
    "description": {
        "en-US": "An actor touched the screen or something on the screen with a finger or tangible.",
        "de-DE": "Ein Akteur berührte den Bildschirm oder etwas auf dem Bildschirm mit einem Finger oder Tangible."
    }
}