{
    "name": {
        "en-US": "eye tracking system",
        "de-DE": "Eye-Tracking System"
    },
    "description": {
        "en-US": "A system to track gazes of an actor.",
        "de-DE": "Ein System um die Augenbewegungen eines Akteurs aufzuzeichnen."
    }
}