{
    "name": {
        "en-US": "mouse",
        "de-DE": "Maus"
    },
    "description": {
        "en-US": "A mouse to use UI or interact with the system in another way.",
        "de-DE": "Eine Maus um die Benutzeroberfläche zu benutzen oder in einer anderen Form mit dem System zu interagieren."
    }
}